{
  "entrypoint": "index.html",
  "shell": "src/my-app.html",
  "fragments": [
    "src/home-principal.html",
    "src/register-login.html",
    "src/home-cliente.html",
    "src/not-found.html"
  ],
  "sources": [
    "images/**/*",
    "src/**/*"
  ],
  "extraDependencies": [
    "bower_components/webcomponentsjs/*.js",
    "!bower_components/webcomponentsjs/gulpfile.js",
    "manifest.json"
  ],
  "lint": {
    "rules": ["polymer-2"]
  }
}
